dataT   dataTErr   dataB   dataE   dataTr   dataRALRAR   dataRATRAB   dataSpinRot   Asy   AsyPosErr   AsyNegErr   Sigma   SigmaPosErr   SigmaNegErr   Ph   PhPosErr   PhNegErr   Field   FieldPosErr   FieldNegErr   RelPh_L   RelPh_LPosErr   RelPh_LNegErr   N0_L   N0_LPosErr   N0_LNegErr   N_bkg_L   N_bkg_LPosErr   N_bkg_LNegErr   RelPh_T   RelPh_TPosErr   RelPh_TNegErr   N0_T   N0_TPosErr   N0_TNegErr   N_bkg_T   N_bkg_TPosErr   N_bkg_TNegErr   RelPh_R   RelPh_RPosErr   RelPh_RNegErr   alpha_LR   alpha_LRPosErr   alpha_LRNegErr   N_bkg_R   N_bkg_RPosErr   N_bkg_RNegErr   RelPh_B   RelPh_BPosErr   RelPh_BNegErr   alpha_TB   alpha_TBPosErr   alpha_TBNegErr   N_bkg_B   N_bkg_BPosErr   N_bkg_BNegErr   maxLH   NDF   maxLHred   RUN   AsymCorrected   AsymCorrectedErr   AsymAg   DiaFrac   DiaFracErr
  259.9980     0.0050    99.4870    21.9908    16.4943    -0.0090    -0.0090   -10.0000     0.0189     0.0009     0.0009     0.2110     0.0370     0.0380     6.9000     3.3000     3.3000   102.0700     0.3500     0.3600     0.0000     0.0000     0.0000   307.1100     0.3400     0.3500     6.4110     0.0520     0.0520   -90.0000     0.0000     0.0000   318.1600     0.3500     0.3400     6.6130     0.0520     0.0530   180.0000     0.0000     0.0000     0.9960     0.0016     0.0016     6.6640     0.0530     0.0520    90.0000     0.0000     0.0000     0.9709     0.0015     0.0015     6.4340     0.0520     0.0520  3626.0000  3648.0000     0.9940  1768.0000     0.0056     0.0009     0.2229     0.0253     0.0041
  260.0010     0.0050    99.4860    20.9917    16.4944    -0.0100    -0.0090   -10.0000     0.0173     0.0008     0.0008     0.1150     0.0380     0.0480    14.6000     3.3000     3.3000   101.5700     0.2900     0.2900     0.0000     0.0000     0.0000   307.7100     0.3400     0.3400     6.2450     0.0520     0.0520   -90.0000     0.0000     0.0000   319.7600     0.3500     0.3500     6.4440     0.0530     0.0530   180.0000     0.0000     0.0000     0.9888     0.0016     0.0016     6.6200     0.0520     0.0520    90.0000     0.0000     0.0000     0.9675     0.0015     0.0015     6.2600     0.0520     0.0520  3534.0000  3648.0000     0.9688  1769.0000     0.0041     0.0008     0.2228     0.0186     0.0036
  259.9990     0.0040    99.4850    19.9929    16.4944    -0.0090    -0.0090   -10.0000     0.0189     0.0008     0.0008     0.1850     0.0310     0.0320    12.8000     3.2000     3.2000   101.5500     0.3300     0.3300     0.0000     0.0000     0.0000   307.4900     0.3400     0.3400     6.1700     0.0520     0.0510   -90.0000     0.0000     0.0000   318.8100     0.3500     0.3500     6.4530     0.0520     0.0530   180.0000     0.0000     0.0000     0.9956     0.0016     0.0016     6.5020     0.0520     0.0520    90.0000     0.0000     0.0000     0.9658     0.0015     0.0015     6.3610     0.0520     0.0520  3714.3000  3648.0000     1.0182  1770.0000     0.0057     0.0008     0.2226     0.0257     0.0038
  260.0000     0.0040    99.4800    18.9936    16.4944    -0.0090    -0.0090   -10.0000     0.0224     0.0009     0.0009     0.1440     0.0310     0.0350    11.3000     2.5000     2.5000   101.4700     0.2400     0.2400     0.0000     0.0000     0.0000   309.8000     0.3400     0.3400     6.1220     0.0520     0.0520   -90.0000     0.0000     0.0000   320.2200     0.3500     0.3500     6.4730     0.0530     0.0530   180.0000     0.0000     0.0000     0.9840     0.0016     0.0015     6.5210     0.0520     0.0520    90.0000     0.0000     0.0000     0.9671     0.0015     0.0015     6.3290     0.0520     0.0520  3693.7000  3648.0000     1.0125  1771.0000     0.0091     0.0009     0.2224     0.0411     0.0038
  260.0000     0.0040    99.4840    17.9948    16.4944    -0.0090    -0.0090   -10.0000     0.0227     0.0008     0.0008     0.1160     0.0280     0.0330     7.8000     2.6000     2.6000   101.5600     0.2300     0.2300     0.0000     0.0000     0.0000   309.8600     0.3400     0.3400     6.2460     0.0520     0.0520   -90.0000     0.0000     0.0000   318.6400     0.3500     0.3500     6.5590     0.0530     0.0530   180.0000     0.0000     0.0000     0.9908     0.0016     0.0016     6.5410     0.0520     0.0520    90.0000     0.0000     0.0000     0.9674     0.0015     0.0015     6.2850     0.0520     0.0520  3799.8999  3648.0000     1.0416  1772.0000     0.0094     0.0008     0.2221     0.0425     0.0036
  259.9990     0.0030    99.4800    16.9956    16.4944    -0.0090    -0.0090   -10.0000     0.0245     0.0008     0.0008     0.0550     0.0350     0.0550     9.7000     2.3000     2.3000   101.5300     0.1900     0.1900     0.0000     0.0000     0.0000   310.9500     0.3400     0.3400     6.1020     0.0520     0.0520   -90.0000     0.0000     0.0000   319.5300     0.3500     0.3500     6.3210     0.0530     0.0520   180.0000     0.0000     0.0000     0.9998     0.0016     0.0016     6.5870     0.0530     0.0520    90.0000     0.0000     0.0000     0.9641     0.0015     0.0015     6.2840     0.0520     0.0520  3579.0000  3648.0000     0.9811  1773.0000     0.0112     0.0008     0.2218     0.0507     0.0034
  260.0010     0.0050    99.4830    15.9969    16.4944    -0.0090    -0.0100   -10.0000     0.0270     0.0008     0.0008     0.0940     0.0250     0.0310    18.5000     2.1000     2.1000   101.0900     0.1800     0.1800     0.0000     0.0000     0.0000   310.8400     0.3400     0.3400     6.1600     0.0520     0.0520   -90.0000     0.0000     0.0000   319.8000     0.3500     0.3500     6.4640     0.0530     0.0530   180.0000     0.0000     0.0000     0.9856     0.0016     0.0015     6.6430     0.0520     0.0520    90.0000     0.0000     0.0000     0.9620     0.0015     0.0015     6.2280     0.0520     0.0520  3668.1001  3648.0000     1.0055  1774.0000     0.0138     0.0008     0.2214     0.0622     0.0035
  260.0000     0.0050    99.4800    14.9896    16.4944    -0.0090    -0.0100   -10.0000     0.0321     0.0008     0.0008     0.1090     0.0210     0.0240    21.3000     1.8000     1.8000   100.6400     0.1500     0.1600     0.0000     0.0000     0.0000   310.5100     0.3400     0.3400     6.0220     0.0520     0.0510   -90.0000     0.0000     0.0000   320.0000     0.3500     0.3500     6.3740     0.0520     0.0530   180.0000     0.0000     0.0000     0.9995     0.0016     0.0016     6.5310     0.0520     0.0520    90.0000     0.0000     0.0000     0.9638     0.0015     0.0015     6.2240     0.0520     0.0520  3688.7000  3648.0000     1.0112  1775.0000     0.0188     0.0008     0.2208     0.0852     0.0036
  259.9990     0.0070    99.4840    13.9908    16.4944    -0.0100    -0.0100   -10.0000     0.0378     0.0008     0.0008     0.1390     0.0160     0.0170    13.9000     1.6000     1.6000   101.2900     0.1500     0.1500     0.0000     0.0000     0.0000   309.9200     0.3400     0.3500     6.2450     0.0520     0.0520   -90.0000     0.0000     0.0000   319.7900     0.3500     0.3500     6.3790     0.0520     0.0530   180.0000     0.0000     0.0000     1.0024     0.0016     0.0016     6.5540     0.0520     0.0520    90.0000     0.0000     0.0000     0.9592     0.0015     0.0015     6.2040     0.0520     0.0510  3584.0000  3648.0000     0.9825  1776.0000     0.0244     0.0008     0.2200     0.1109     0.0036
  260.0010     0.0070    99.4800    12.9921    16.4944    -0.0090    -0.0100   -10.0000     0.0438     0.0008     0.0008     0.1140     0.0140     0.0150    11.7000     1.3000     1.3000   101.6000     0.1200     0.1200     0.0000     0.0000     0.0000   312.5200     0.3400     0.3500     6.1510     0.0520     0.0520   -90.0000     0.0000     0.0000   320.1200     0.3500     0.3400     6.3970     0.0520     0.0530   180.0000     0.0000     0.0000     0.9942     0.0016     0.0015     6.4640     0.0520     0.0520    90.0000     0.0000     0.0000     0.9622     0.0015     0.0015     6.1950     0.0520     0.0520  3427.6001  3648.0000     0.9396  1777.0000     0.0303     0.0008     0.2191     0.1385     0.0036
  259.9980     0.0050    99.4800    11.9928    16.4945    -0.0090    -0.0090   -10.0000     0.0517     0.0008     0.0008     0.0930     0.0140     0.0160    14.3000     1.1000     1.1000   101.3650     0.0930     0.0930     0.0000     0.0000     0.0000   311.7100     0.3400     0.3500     6.0330     0.0520     0.0510   -90.0000     0.0000     0.0000   318.4700     0.3500     0.3400     6.3530     0.0520     0.0530   180.0000     0.0000     0.0000     0.9945     0.0016     0.0015     6.6250     0.0530     0.0520    90.0000     0.0000     0.0000     0.9632     0.0015     0.0015     6.0950     0.0520     0.0510  3576.7000  3648.0000     0.9805  1778.0000     0.0381     0.0008     0.2178     0.1751     0.0036
  260.0020     0.0070    99.4760    10.9941    16.4945    -0.0100    -0.0090   -10.0000     0.0588     0.0008     0.0008     0.1200     0.0110     0.0110    15.0300     0.9900     0.9900   101.3480     0.0880     0.0880     0.0000     0.0000     0.0000   310.9300     0.3400     0.3400     6.2370     0.0520     0.0520   -90.0000     0.0000     0.0000   318.9400     0.3500     0.3400     6.3220     0.0520     0.0530   180.0000     0.0000     0.0000     0.9972     0.0016     0.0016     6.5920     0.0520     0.0520    90.0000     0.0000     0.0000     0.9630     0.0015     0.0015     6.1340     0.0520     0.0520  3697.3999  3648.0000     1.0135  1779.0000     0.0451     0.0008     0.2161     0.2085     0.0037
  259.9990     0.0040    99.4780     9.9949    16.4944    -0.0090    -0.0090   -10.0000     0.0637     0.0008     0.0008     0.0840     0.0120     0.0130    18.0300     0.9000     0.8900   101.1790     0.0750     0.0760     0.0000     0.0000     0.0000   309.4700     0.3400     0.3400     6.1330     0.0520     0.0510   -90.0000     0.0000     0.0000   319.3200     0.3500     0.3500     6.2810     0.0520     0.0530   180.0000     0.0000     0.0000     1.0038     0.0016     0.0016     6.6150     0.0520     0.0530    90.0000     0.0000     0.0000     0.9603     0.0015     0.0015     6.0590     0.0520     0.0510  3728.6001  3648.0000     1.0221  1780.0000     0.0497     0.0008     0.2139     0.2321     0.0036
  260.0010     0.0060    99.4820     8.9960    16.4945    -0.0090    -0.0090   -10.0000     0.0665     0.0008     0.0008     0.1030     0.0100     0.0110    18.6200     0.8600     0.8600   101.2670     0.0740     0.0740     0.0000     0.0000     0.0000   310.4800     0.3400     0.3500     5.9660     0.0520     0.0510   -90.0000     0.0000     0.0000   318.5100     0.3500     0.3400     6.3040     0.0520     0.0530   180.0000     0.0000     0.0000     0.9986     0.0016     0.0015     6.6620     0.0520     0.0530    90.0000     0.0000     0.0000     0.9627     0.0015     0.0015     6.1230     0.0520     0.0510  3587.3000  3648.0000     0.9834  1781.0000     0.0519     0.0008     0.2110     0.2462     0.0037
  259.9990     0.0090    99.4800     6.9982    16.4945    -0.0090    -0.0090   -10.0000     0.0715     0.0008     0.0008     0.1211     0.0086     0.0091    17.1600     0.8200     0.8200   101.1230     0.0720     0.0730     0.0000     0.0000     0.0000   313.3200     0.3400     0.3500     5.9760     0.0520     0.0520   -90.0000     0.0000     0.0000   320.7800     0.3500     0.3500     6.2370     0.0520     0.0530   180.0000     0.0000     0.0000     0.9914     0.0016     0.0015     6.5660     0.0520     0.0520    90.0000     0.0000     0.0000     0.9568     0.0015     0.0015     6.0440     0.0520     0.0510  3532.3000  3648.0000     0.9683  1782.0000     0.0549     0.0008     0.2019     0.2721     0.0039
  260.0010     0.0070    99.4800     5.0084    11.9989    -0.0080    -0.0080   -10.0000     0.0687     0.0008     0.0008     0.1333     0.0090     0.0093    19.4000     0.8400     0.8400   101.1300     0.0760     0.0760     0.0000     0.0000     0.0000   312.8000     0.3400     0.3500     5.6030     0.0510     0.0510   -90.0000     0.0000     0.0000   315.9700     0.3500     0.3400     5.8100     0.0510     0.0520   180.0000     0.0000     0.0000     1.0046     0.0016     0.0015     6.1330     0.0520     0.0520    90.0000     0.0000     0.0000     0.9559     0.0015     0.0015     5.5120     0.0510     0.0500  3703.7000  3648.0000     1.0153  1786.0000     0.0564     0.0008     0.1714     0.3291     0.0047
  259.9990     0.0040    99.4800     4.0095    11.9989    -0.0080    -0.0080   -10.0000     0.0726     0.0008     0.0008     0.1520     0.0079     0.0080    18.6900     0.8300     0.8300   101.2350     0.0780     0.0780     0.0000     0.0000     0.0000   305.7300     0.3400     0.3400     5.5080     0.0510     0.0500   -90.0000     0.0000     0.0000   317.1300     0.3500     0.3400     5.8440     0.0520     0.0520   180.0000     0.0000     0.0000     1.0351     0.0016     0.0016     6.3320     0.0520     0.0520    90.0000     0.0000     0.0000     0.9532     0.0015     0.0015     5.7120     0.0510     0.0510  3675.3999  3648.0000     1.0075  1785.0000     0.0582     0.0008     0.1632     0.3564     0.0049
  260.0000     0.0060    99.4800     3.0103    11.9989    -0.0080    -0.0080   -10.0000     0.0790     0.0008     0.0008     0.1489     0.0072     0.0073    18.9800     0.7500     0.7500   101.2100     0.0700     0.0700     0.0000     0.0000     0.0000   305.8800     0.3300     0.3400     4.7740     0.0500     0.0490   -90.0000     0.0000     0.0000   321.4400     0.3500     0.3400     5.1770     0.0510     0.0510   180.0000     0.0000     0.0000     1.0492     0.0016     0.0016     5.5870     0.0520     0.0510    90.0000     0.0000     0.0000     0.9542     0.0015     0.0015     4.9270     0.0500     0.0500  3820.3000  3648.0000     1.0472  1784.0000     0.0596     0.0008     0.1505     0.3960     0.0052
  260.0010     0.0050    99.4800     2.0117    11.9990    -0.0080    -0.0080   -10.0000     0.0876     0.0008     0.0008     0.1596     0.0066     0.0068    20.6200     0.6800     0.6800   100.8890     0.0650     0.0650     0.0000     0.0000     0.0000   303.6100     0.3400     0.3400     5.4660     0.0510     0.0500   -90.0000     0.0000     0.0000   318.3500     0.3500     0.3400     5.7660     0.0510     0.0520   180.0000     0.0000     0.0000     1.0639     0.0017     0.0016     6.2660     0.0530     0.0530    90.0000     0.0000     0.0000     0.9477     0.0015     0.0015     5.6210     0.0510     0.0500  3815.1001  3648.0000     1.0458  1783.0000     0.0568     0.0008     0.1291     0.4397     0.0063
